{                    // данные для графиков и таблиц в правой части для этого дня
    "hotel": {                    // данные для вкладки "Отель"
    "roomsForSale": [           // массив для баров "номеров к продаже"
        {
        "v": 12,
        "title": "Standard Room King",
        "max": 30
        }
    ],
    "profit": [                 // график на под вкладке "Доход" (по точкам X Y)
        [0, 29534] //, ...
    ],
    "averageFare": [            // график на под вкладке "Средний тариф" (по точкам X Y)
        [0, 2461.17] //, ...
    ],
    "salesDepth": [             // график на под вкладке "Загрузка" (по точкам X Y)
        [0, 12] //, ...
    ]
    },
    "competitors": {                      // данные для вкладки "Конкуренты"
    "medianPrice": [                    // график "Медианнная цена по рынку" (по точкам X Y)
        [0, 2530] // , [0, 2530], ...
    ],
    "tariffs": [                        // данные для таблицы "Тарифы группы конкурентов"
        {
        "price": 2160,
        "ID": "e6171154c430dfd1740bd6c59c1c2adff4171687",
        "name": "Отель Астерия"
        } //, ...
    ]
    }
}